0:0:0:0:0:0:0:1 - - [12/Dec/2021:22:32:32 +0300] "GET /optfirm HTTP/1.1" 302 -
0:0:0:0:0:0:0:1 - - [12/Dec/2021:22:32:32 +0300] "GET /optfirm/ HTTP/1.1" 200 2276
0:0:0:0:0:0:0:1 - - [12/Dec/2021:22:32:32 +0300] "GET /optfirm/VAADIN/vaadinBootstrap.js?v=8.9.2-27-cuba HTTP/1.1" 200 3985
0:0:0:0:0:0:0:1 - - [12/Dec/2021:22:32:32 +0300] "GET /optfirm/VAADIN/vaadinPush.debug.js?v=8.9.2-27-cuba HTTP/1.1" 200 24685
0:0:0:0:0:0:0:1 - - [12/Dec/2021:22:32:32 +0300] "GET /optfirm/VAADIN/widgetsets/com.haulmont.cuba.web.widgets.WidgetSet/com.haulmont.cuba.web.widgets.WidgetSet.nocache.js?1639337552552 HTTP/1.1" 200 3322
0:0:0:0:0:0:0:1 - - [12/Dec/2021:22:32:32 +0300] "GET /optfirm/VAADIN/themes/hover/styles.css?v=8.9.2-27-cuba HTTP/1.1" 200 58091
0:0:0:0:0:0:0:1 - - [12/Dec/2021:22:32:32 +0300] "GET /optfirm/VAADIN/widgetsets/com.haulmont.cuba.web.widgets.WidgetSet/D66704110A33890FC0280AF131F1D979.cache.js HTTP/1.1" 200 515280
0:0:0:0:0:0:0:1 - - [12/Dec/2021:22:32:32 +0300] "GET /optfirm/VAADIN/themes/valo/shared/img/spinner.gif HTTP/1.1" 200 7194
0:0:0:0:0:0:0:1 - - [12/Dec/2021:22:32:32 +0300] "GET /optfirm/VAADIN/themes/hover/favicon.ico HTTP/1.1" 200 16958
0:0:0:0:0:0:0:1 - - [12/Dec/2021:22:32:33 +0300] "POST /optfirm/?v-1639337552552 HTTP/1.1" 200 9840
0:0:0:0:0:0:0:1 - - [12/Dec/2021:22:32:33 +0300] "GET /optfirm/VAADIN/themes/halo/app/images/cuba-icon-login.svg HTTP/1.1" 200 1552
0:0:0:0:0:0:0:1 - - [12/Dec/2021:22:32:33 +0300] "GET /optfirm/VAADIN/widgetsets/com.haulmont.cuba.web.widgets.WidgetSet/deferredjs/D66704110A33890FC0280AF131F1D979/52.cache.js HTTP/1.1" 200 59761
0:0:0:0:0:0:0:1 - - [12/Dec/2021:22:32:33 +0300] "GET /optfirm/VAADIN/themes/hover/branding/app-icon-login.png HTTP/1.1" 200 1172
0:0:0:0:0:0:0:1 - - [12/Dec/2021:22:32:33 +0300] "GET /optfirm/VAADIN/themes/valo/fonts/themeicons-webfont/themeicons-webfont.woff HTTP/1.1" 200 7868
0:0:0:0:0:0:0:1 - - [12/Dec/2021:22:32:33 +0300] "GET /optfirm/VAADIN/themes/valo/fonts/open-sans/OpenSans-Regular-webfont.woff HTTP/1.1" 200 67524
0:0:0:0:0:0:0:1 - - [12/Dec/2021:22:32:33 +0300] "GET /optfirm/VAADIN/themes/valo/fonts/fontawesome-webfont/fontawesome-webfont.woff HTTP/1.1" 200 98024
0:0:0:0:0:0:0:1 - - [12/Dec/2021:22:32:33 +0300] "GET /optfirm/VAADIN/themes/valo/fonts/open-sans/OpenSans-Semibold-webfont.woff HTTP/1.1" 200 69884
0:0:0:0:0:0:0:1 - - [12/Dec/2021:22:32:33 +0300] "POST /optfirm/UIDL/?v-uiId=0 HTTP/1.1" 200 161
0:0:0:0:0:0:0:1 - - [12/Dec/2021:22:32:33 +0300] "GET /optfirm/VAADIN/widgetsets/com.haulmont.cuba.web.widgets.WidgetSet/deferredjs/D66704110A33890FC0280AF131F1D979/2.cache.js HTTP/1.1" 200 197
0:0:0:0:0:0:0:1 - - [12/Dec/2021:22:32:33 +0300] "GET /optfirm/PUSH?v-uiId=0&v-pushId=df7860b8-24cc-46ee-b92e-2ae55d6f9935&X-Atmosphere-tracking-id=0&X-Atmosphere-Framework=2.3.2.vaadin1-javascript&X-Atmosphere-Transport=websocket&X-Atmosphere-TrackMessageSize=true&Content-Type=application/json;%20charset=UTF-8&X-atmo-protocol=true HTTP/1.1" 101 -
0:0:0:0:0:0:0:1 - - [12/Dec/2021:22:32:35 +0300] "POST /optfirm/UIDL/?v-uiId=0 HTTP/1.1" 200 158
0:0:0:0:0:0:0:1 - - [12/Dec/2021:22:32:35 +0300] "POST /optfirm/UIDL/?v-uiId=0 HTTP/1.1" 200 9092
0:0:0:0:0:0:0:1 - - [12/Dec/2021:22:32:35 +0300] "GET /optfirm/VAADIN/themes/hover/branding/app-icon-menu.png HTTP/1.1" 200 4705
0:0:0:0:0:0:0:1 - - [12/Dec/2021:22:32:38 +0300] "POST /optfirm/UIDL/?v-uiId=0 HTTP/1.1" 200 12652
0:0:0:0:0:0:0:1 - - [12/Dec/2021:22:32:38 +0300] "POST /optfirm/UIDL/?v-uiId=0 HTTP/1.1" 200 10207
0:0:0:0:0:0:0:1 - - [12/Dec/2021:22:32:39 +0300] "POST /optfirm/UIDL/?v-uiId=0 HTTP/1.1" 200 15256
0:0:0:0:0:0:0:1 - - [12/Dec/2021:22:32:39 +0300] "GET /optfirm/VAADIN/webjars/jquery-file-upload/9.22.0.cuba.0/jquery-iframe-transport.min.js HTTP/1.1" 200 2277
0:0:0:0:0:0:0:1 - - [12/Dec/2021:22:32:39 +0300] "GET /optfirm/VAADIN/webjars/jquery-file-upload/9.22.0.cuba.0/jquery-fileupload.min.js HTTP/1.1" 200 18154
0:0:0:0:0:0:0:1 - - [12/Dec/2021:22:32:39 +0300] "GET /optfirm/VAADIN/webjars/jquery/3.3.1/jquery.min.js HTTP/1.1" 200 87055
0:0:0:0:0:0:0:1 - - [12/Dec/2021:22:32:39 +0300] "GET /optfirm/VAADIN/webjars/jquery-ui/1.13.0/jquery-ui.min.js HTTP/1.1" 200 255181
0:0:0:0:0:0:0:1 - - [12/Dec/2021:22:32:40 +0300] "POST /optfirm/UIDL/?v-uiId=0 HTTP/1.1" 200 11208
