0:0:0:0:0:0:0:1 - - [16/Dec/2021:14:58:17 +0300] "GET /optfirm HTTP/1.1" 302 -
0:0:0:0:0:0:0:1 - - [16/Dec/2021:14:58:17 +0300] "GET /optfirm/ HTTP/1.1" 200 2276
0:0:0:0:0:0:0:1 - - [16/Dec/2021:14:58:17 +0300] "GET /optfirm/VAADIN/vaadinPush.debug.js?v=8.9.2-27-cuba HTTP/1.1" 304 -
0:0:0:0:0:0:0:1 - - [16/Dec/2021:14:58:17 +0300] "GET /optfirm/VAADIN/vaadinBootstrap.js?v=8.9.2-27-cuba HTTP/1.1" 304 -
0:0:0:0:0:0:0:1 - - [16/Dec/2021:14:58:17 +0300] "GET /optfirm/VAADIN/widgetsets/com.haulmont.cuba.web.widgets.WidgetSet/com.haulmont.cuba.web.widgets.WidgetSet.nocache.js?1639655897260 HTTP/1.1" 200 3322
0:0:0:0:0:0:0:1 - - [16/Dec/2021:14:58:17 +0300] "GET /optfirm/VAADIN/themes/hover/styles.css?v=8.9.2-27-cuba HTTP/1.1" 200 58091
0:0:0:0:0:0:0:1 - - [16/Dec/2021:14:58:17 +0300] "GET /optfirm/VAADIN/themes/valo/shared/img/spinner.gif HTTP/1.1" 200 7194
0:0:0:0:0:0:0:1 - - [16/Dec/2021:14:58:18 +0300] "POST /optfirm/?v-1639655897261 HTTP/1.1" 200 9839
0:0:0:0:0:0:0:1 - - [16/Dec/2021:14:58:18 +0300] "GET /optfirm/VAADIN/themes/halo/app/images/cuba-icon-login.svg HTTP/1.1" 200 1552
0:0:0:0:0:0:0:1 - - [16/Dec/2021:14:58:18 +0300] "GET /optfirm/VAADIN/themes/hover/branding/app-icon-login.png HTTP/1.1" 200 1172
0:0:0:0:0:0:0:1 - - [16/Dec/2021:14:58:18 +0300] "GET /optfirm/VAADIN/themes/valo/fonts/themeicons-webfont/themeicons-webfont.woff HTTP/1.1" 200 7868
0:0:0:0:0:0:0:1 - - [16/Dec/2021:14:58:18 +0300] "GET /optfirm/VAADIN/themes/valo/fonts/open-sans/OpenSans-Regular-webfont.woff HTTP/1.1" 200 67524
0:0:0:0:0:0:0:1 - - [16/Dec/2021:14:58:18 +0300] "GET /optfirm/VAADIN/themes/valo/fonts/fontawesome-webfont/fontawesome-webfont.woff HTTP/1.1" 200 98024
0:0:0:0:0:0:0:1 - - [16/Dec/2021:14:58:18 +0300] "GET /optfirm/VAADIN/themes/valo/fonts/open-sans/OpenSans-Semibold-webfont.woff HTTP/1.1" 200 69884
0:0:0:0:0:0:0:1 - - [16/Dec/2021:14:58:18 +0300] "POST /optfirm/UIDL/?v-uiId=0 HTTP/1.1" 200 159
0:0:0:0:0:0:0:1 - - [16/Dec/2021:14:58:18 +0300] "GET /optfirm/PUSH?v-uiId=0&v-pushId=c588cff8-28a2-4f6e-8218-719626f14412&X-Atmosphere-tracking-id=0&X-Atmosphere-Framework=2.3.2.vaadin1-javascript&X-Atmosphere-Transport=websocket&X-Atmosphere-TrackMessageSize=true&Content-Type=application/json;%20charset=UTF-8&X-atmo-protocol=true HTTP/1.1" 101 -
0:0:0:0:0:0:0:1 - - [16/Dec/2021:14:58:21 +0300] "POST /optfirm/UIDL/?v-uiId=0 HTTP/1.1" 200 157
0:0:0:0:0:0:0:1 - - [16/Dec/2021:14:58:25 +0300] "POST /optfirm/UIDL/?v-uiId=0 HTTP/1.1" 200 157
0:0:0:0:0:0:0:1 - - [16/Dec/2021:15:04:25 +0300] "GET /optfirm HTTP/1.1" 302 -
0:0:0:0:0:0:0:1 - - [16/Dec/2021:15:04:25 +0300] "GET /optfirm/ HTTP/1.1" 200 2276
0:0:0:0:0:0:0:1 - - [16/Dec/2021:15:04:25 +0300] "GET /optfirm/VAADIN/widgetsets/com.haulmont.cuba.web.widgets.WidgetSet/com.haulmont.cuba.web.widgets.WidgetSet.nocache.js?1639656265393 HTTP/1.1" 200 3322
0:0:0:0:0:0:0:1 - - [16/Dec/2021:15:04:25 +0300] "GET /optfirm/VAADIN/themes/hover/favicon.ico HTTP/1.1" 200 16958
0:0:0:0:0:0:0:1 - - [16/Dec/2021:15:04:26 +0300] "POST /optfirm/?v-1639656265393 HTTP/1.1" 200 9839
0:0:0:0:0:0:0:1 - - [16/Dec/2021:15:04:28 +0300] "POST /optfirm/UIDL/?v-uiId=0 HTTP/1.1" 200 159
0:0:0:0:0:0:0:1 - - [16/Dec/2021:15:04:28 +0300] "GET /optfirm/PUSH?v-uiId=0&v-pushId=ccbe1c16-0b39-490d-b0c1-3fe136375bd8&X-Atmosphere-tracking-id=0&X-Atmosphere-Framework=2.3.2.vaadin1-javascript&X-Atmosphere-Transport=websocket&X-Atmosphere-TrackMessageSize=true&Content-Type=application/json;%20charset=UTF-8&X-atmo-protocol=true HTTP/1.1" 101 -
0:0:0:0:0:0:0:1 - - [16/Dec/2021:15:04:57 +0300] "POST /optfirm/UIDL/?v-uiId=0 HTTP/1.1" 200 157
0:0:0:0:0:0:0:1 - - [16/Dec/2021:15:04:57 +0300] "POST /optfirm/UIDL/?v-uiId=0 HTTP/1.1" 200 9091
0:0:0:0:0:0:0:1 - - [16/Dec/2021:15:04:57 +0300] "GET /optfirm/VAADIN/themes/hover/branding/app-icon-menu.png HTTP/1.1" 200 4705
0:0:0:0:0:0:0:1 - - [16/Dec/2021:15:04:59 +0300] "POST /optfirm/UIDL/?v-uiId=0 HTTP/1.1" 200 5494
0:0:0:0:0:0:0:1 - - [16/Dec/2021:15:05:00 +0300] "POST /optfirm/UIDL/?v-uiId=0 HTTP/1.1" 200 159
0:0:0:0:0:0:0:1 - - [16/Dec/2021:15:05:01 +0300] "POST /optfirm/UIDL/?v-uiId=0 HTTP/1.1" 200 158
0:0:0:0:0:0:0:1 - - [16/Dec/2021:15:05:03 +0300] "POST /optfirm/UIDL/?v-uiId=0 HTTP/1.1" 200 7350
0:0:0:0:0:0:0:1 - - [16/Dec/2021:15:05:11 +0300] "POST /optfirm/UIDL/?v-uiId=0 HTTP/1.1" 200 12969
0:0:0:0:0:0:0:1 - - [16/Dec/2021:15:05:13 +0300] "POST /optfirm/UIDL/?v-uiId=0 HTTP/1.1" 200 160
0:0:0:0:0:0:0:1 - - [16/Dec/2021:15:05:16 +0300] "POST /optfirm/UIDL/?v-uiId=0 HTTP/1.1" 200 488
0:0:0:0:0:0:0:1 - - [16/Dec/2021:15:05:17 +0300] "POST /optfirm/UIDL/?v-uiId=0 HTTP/1.1" 200 320
0:0:0:0:0:0:0:1 - - [16/Dec/2021:15:05:18 +0300] "POST /optfirm/UIDL/?v-uiId=0 HTTP/1.1" 200 253
0:0:0:0:0:0:0:1 - - [16/Dec/2021:15:05:22 +0300] "POST /optfirm/UIDL/?v-uiId=0 HTTP/1.1" 200 253
0:0:0:0:0:0:0:1 - - [16/Dec/2021:15:05:22 +0300] "POST /optfirm/UIDL/?v-uiId=0 HTTP/1.1" 200 318
0:0:0:0:0:0:0:1 - - [16/Dec/2021:15:05:24 +0300] "POST /optfirm/UIDL/?v-uiId=0 HTTP/1.1" 200 17915
0:0:0:0:0:0:0:1 - - [16/Dec/2021:15:05:24 +0300] "GET /optfirm/VAADIN/themes/valo/fonts/open-sans/OpenSans-Light-webfont.woff HTTP/1.1" 200 69392
0:0:0:0:0:0:0:1 - - [16/Dec/2021:15:05:44 +0300] "POST /optfirm/UIDL/?v-uiId=0 HTTP/1.1" 200 1254
0:0:0:0:0:0:0:1 - - [16/Dec/2021:15:05:50 +0300] "POST /optfirm/UIDL/?v-uiId=0 HTTP/1.1" 200 298
0:0:0:0:0:0:0:1 - - [16/Dec/2021:15:06:01 +0300] "POST /optfirm/UIDL/?v-uiId=0 HTTP/1.1" 200 1152
0:0:0:0:0:0:0:1 - - [16/Dec/2021:15:06:04 +0300] "POST /optfirm/UIDL/?v-uiId=0 HTTP/1.1" 200 1152
0:0:0:0:0:0:0:1 - - [16/Dec/2021:15:06:04 +0300] "POST /optfirm/UIDL/?v-uiId=0 HTTP/1.1" 200 1152
0:0:0:0:0:0:0:1 - - [16/Dec/2021:15:06:09 +0300] "POST /optfirm/UIDL/?v-uiId=0 HTTP/1.1" 200 490
0:0:0:0:0:0:0:1 - - [16/Dec/2021:15:06:14 +0300] "POST /optfirm/UIDL/?v-uiId=0 HTTP/1.1" 200 160
0:0:0:0:0:0:0:1 - - [16/Dec/2021:15:06:18 +0300] "POST /optfirm/UIDL/?v-uiId=0 HTTP/1.1" 200 160
0:0:0:0:0:0:0:1 - - [16/Dec/2021:15:06:18 +0300] "POST /optfirm/UIDL/?v-uiId=0 HTTP/1.1" 200 867
0:0:0:0:0:0:0:1 - - [16/Dec/2021:15:06:21 +0300] "POST /optfirm/UIDL/?v-uiId=0 HTTP/1.1" 200 491
0:0:0:0:0:0:0:1 - - [16/Dec/2021:15:06:31 +0300] "POST /optfirm/UIDL/?v-uiId=0 HTTP/1.1" 200 214
0:0:0:0:0:0:0:1 - - [16/Dec/2021:15:06:35 +0300] "POST /optfirm/UIDL/?v-uiId=0 HTTP/1.1" 200 214
0:0:0:0:0:0:0:1 - - [16/Dec/2021:15:06:36 +0300] "POST /optfirm/UIDL/?v-uiId=0 HTTP/1.1" 200 10176
0:0:0:0:0:0:0:1 - - [16/Dec/2021:15:06:42 +0300] "POST /optfirm/UIDL/?v-uiId=0 HTTP/1.1" 200 162
0:0:0:0:0:0:0:1 - - [16/Dec/2021:15:14:28 +0300] "POST /optfirm/HEARTBEAT/?v-uiId=0 HTTP/1.1" 200 -
0:0:0:0:0:0:0:1 - - [16/Dec/2021:15:24:29 +0300] "POST /optfirm/HEARTBEAT/?v-uiId=0 HTTP/1.1" 200 -
0:0:0:0:0:0:0:1 - - [16/Dec/2021:15:34:30 +0300] "POST /optfirm/HEARTBEAT/?v-uiId=0 HTTP/1.1" 200 -
0:0:0:0:0:0:0:1 - - [16/Dec/2021:15:44:31 +0300] "POST /optfirm/HEARTBEAT/?v-uiId=0 HTTP/1.1" 200 -
0:0:0:0:0:0:0:1 - - [16/Dec/2021:15:54:32 +0300] "POST /optfirm/HEARTBEAT/?v-uiId=0 HTTP/1.1" 200 -
0:0:0:0:0:0:0:1 - - [16/Dec/2021:16:04:33 +0300] "POST /optfirm/HEARTBEAT/?v-uiId=0 HTTP/1.1" 200 -
0:0:0:0:0:0:0:1 - - [16/Dec/2021:16:14:34 +0300] "POST /optfirm/HEARTBEAT/?v-uiId=0 HTTP/1.1" 200 -
